{
  "status": {
    "timestamp": "2022-01-30T21:00:03.439Z",
    "error_code": 0,
    "error_message": null,
    "elapsed": 28,
    "credit_count": 1,
    "notice": null
  },
  "data": {
    "BNB": {
      "id": 1839,
      "name": "BNB",
      "symbol": "BNB",
      "slug": "bnb",
      "num_market_pairs": 663,
      "date_added": "2017-07-25T00:00:00.000Z",
      "tags": [
        "marketplace",
        "centralized-exchange",
        "payments",
        "smart-contracts",
        "binance-smart-chain",
        "alameda-research-portfolio",
        "multicoin-capital-portfolio",
        "moonriver-ecosystem"
      ],
      "max_supply": 165116760,
      "circulating_supply": 165116760.89,
      "total_supply": 165116760.89,
      "is_active": 1,
      "platform": null,
      "cmc_rank": 4,
      "is_fiat": 0,
      "self_reported_circulating_supply": null,
      "self_reported_market_cap": null,
      "last_updated": "2022-01-30T20:58:00.000Z",
      "quote": {
        "USD": {
          "price": 375.57600555170063,
          "volume_24h": 1262453620.502094,
          "volume_change_24h": -9.4893,
          "percent_change_1h": 0.47578961,
          "percent_change_24h": -3.11290181,
          "percent_change_7d": 2.10676044,
          "percent_change_30d": -26.15615607,
          "percent_change_60d": -39.92221155,
          "percent_change_90d": -30.68338425,
          "market_cap": 62013893504.70146,
          "market_cap_dominance": 3.638,
          "fully_diluted_market_cap": 62013893170.44,
          "last_updated": "2022-01-30T20:58:00.000Z"
        }
      }
    },
    "BTC": {
      "id": 1,
      "name": "Bitcoin",
      "symbol": "BTC",
      "slug": "bitcoin",
      "num_market_pairs": 9121,
      "date_added": "2013-04-28T00:00:00.000Z",
      "tags": [
        "mineable",
        "pow",
        "sha-256",
        "store-of-value",
        "state-channel",
        "coinbase-ventures-portfolio",
        "three-arrows-capital-portfolio",
        "polychain-capital-portfolio",
        "binance-labs-portfolio",
        "blockchain-capital-portfolio",
        "boostvc-portfolio",
        "cms-holdings-portfolio",
        "dcg-portfolio",
        "dragonfly-capital-portfolio",
        "electric-capital-portfolio",
        "fabric-ventures-portfolio",
        "framework-ventures-portfolio",
        "galaxy-digital-portfolio",
        "huobi-capital-portfolio",
        "alameda-research-portfolio",
        "a16z-portfolio",
        "1confirmation-portfolio",
        "winklevoss-capital-portfolio",
        "usv-portfolio",
        "placeholder-ventures-portfolio",
        "pantera-capital-portfolio",
        "multicoin-capital-portfolio",
        "paradigm-portfolio"
      ],
      "max_supply": 21000000,
      "circulating_supply": 18944325,
      "total_supply": 18944325,
      "is_active": 1,
      "platform": null,
      "cmc_rank": 1,
      "is_fiat": 0,
      "self_reported_circulating_supply": null,
      "self_reported_market_cap": null,
      "last_updated": "2022-01-30T20:58:00.000Z",
      "quote": {
        "USD": {
          "price": 37697.68992070957,
          "volume_24h": 14380314044.186157,
          "volume_change_24h": -15.8862,
          "percent_change_1h": 0.42136579,
          "percent_change_24h": -1.51360815,
          "percent_change_7d": 6.97876735,
          "percent_change_30d": -18.0578804,
          "percent_change_60d": -33.61408141,
          "percent_change_90d": -37.86685663,
          "market_cap": 714157289607.1464,
          "market_cap_dominance": 41.9391,
          "fully_diluted_market_cap": 791651488334.9,
          "last_updated": "2022-01-30T20:58:00.000Z"
        }
      }
    },
    "ETH": {
      "id": 1027,
      "name": "Ethereum",
      "symbol": "ETH",
      "slug": "ethereum",
      "num_market_pairs": 5482,
      "date_added": "2015-08-07T00:00:00.000Z",
      "tags": [
        "mineable",
        "pow",
        "smart-contracts",
        "ethereum-ecosystem",
        "binance-smart-chain",
        "coinbase-ventures-portfolio",
        "three-arrows-capital-portfolio",
        "polychain-capital-portfolio",
        "binance-labs-portfolio",
        "blockchain-capital-portfolio",
        "boostvc-portfolio",
        "cms-holdings-portfolio",
        "dcg-portfolio",
        "dragonfly-capital-portfolio",
        "electric-capital-portfolio",
        "fabric-ventures-portfolio",
        "framework-ventures-portfolio",
        "hashkey-capital-portfolio",
        "kenetic-capital-portfolio",
        "huobi-capital-portfolio",
        "alameda-research-portfolio",
        "a16z-portfolio",
        "1confirmation-portfolio",
        "winklevoss-capital-portfolio",
        "usv-portfolio",
        "placeholder-ventures-portfolio",
        "pantera-capital-portfolio",
        "multicoin-capital-portfolio",
        "paradigm-portfolio"
      ],
      "max_supply": null,
      "circulating_supply": 119377682.749,
      "total_supply": 119377682.749,
      "is_active": 1,
      "platform": null,
      "cmc_rank": 2,
      "is_fiat": 0,
      "self_reported_circulating_supply": null,
      "self_reported_market_cap": null,
      "last_updated": "2022-01-30T20:58:00.000Z",
      "quote": {
        "USD": {
          "price": 2575.3439432676755,
          "volume_24h": 9150947547.809221,
          "volume_change_24h": -21.1222,
          "percent_change_1h": 0.58180235,
          "percent_change_24h": -1.00890502,
          "percent_change_7d": 6.34586786,
          "percent_change_30d": -29.44384912,
          "percent_change_60d": -43.63026427,
          "percent_change_90d": -40.2554003,
          "market_cap": 307438592228.9672,
          "market_cap_dominance": 18.0544,
          "fully_diluted_market_cap": 307438592228.97,
          "last_updated": "2022-01-30T20:58:00.000Z"
        }
      }
    },
    "UBXS": {
      "id": 17242,
      "name": "UBXS",
      "symbol": "UBXS",
      "slug": "ubxs",
      "num_market_pairs": 1,
      "date_added": "2022-01-13T12:08:55.000Z",
      "tags": [],
      "max_supply": 100000000,
      "circulating_supply": 0,
      "total_supply": 100000000,
      "platform": {
        "id": 1839,
        "name": "Binance Smart Chain (BEP20)",
        "symbol": "BNB",
        "slug": "bnb",
        "token_address": "0x4f1960E29b2cA581a38c5c474e123f420F8092db"
      },
      "is_active": 1,
      "cmc_rank": 6743,
      "is_fiat": 0,
      "self_reported_circulating_supply": 22000000,
      "self_reported_market_cap": 1815271.1236593302,
      "last_updated": "2022-01-30T20:58:00.000Z",
      "quote": {
        "USD": {
          "price": 0.08251232380269682,
          "volume_24h": 1758.99810971,
          "volume_change_24h": 18.1334,
          "percent_change_1h": 0.01078635,
          "percent_change_24h": -2.42642341,
          "percent_change_7d": 0.71619161,
          "percent_change_30d": -6.81975978,
          "percent_change_60d": -6.81975978,
          "percent_change_90d": -6.81975978,
          "market_cap": 0,
          "market_cap_dominance": 0,
          "fully_diluted_market_cap": 8251232.38,
          "last_updated": "2022-01-30T20:58:00.000Z"
        }
      }
    },
    "USDT": {
      "id": 825,
      "name": "Tether",
      "symbol": "USDT",
      "slug": "tether",
      "num_market_pairs": 27183,
      "date_added": "2015-02-25T00:00:00.000Z",
      "tags": [
        "payments",
        "stablecoin",
        "asset-backed-stablecoin",
        "binance-smart-chain",
        "avalanche-ecosystem",
        "solana-ecosystem",
        "moonriver-ecosystem"
      ],
      "max_supply": null,
      "circulating_supply": 78117427985.9358,
      "total_supply": 80074893058.70424,
      "platform": {
        "id": 1027,
        "name": "Ethereum",
        "symbol": "ETH",
        "slug": "ethereum",
        "token_address": "0xdac17f958d2ee523a2206206994597c13d831ec7"
      },
      "is_active": 1,
      "cmc_rank": 3,
      "is_fiat": 0,
      "self_reported_circulating_supply": null,
      "self_reported_market_cap": null,
      "last_updated": "2022-01-30T20:58:00.000Z",
      "quote": {
        "USD": {
          "price": 1.0004749220230957,
          "volume_24h": 34261784359.345387,
          "volume_change_24h": -14.2588,
          "percent_change_1h": 0.01711862,
          "percent_change_24h": 0.01004256,
          "percent_change_7d": -0.01536634,
          "percent_change_30d": 0.03546164,
          "percent_change_60d": 0.05351062,
          "percent_change_90d": -0.04328482,
          "market_cap": 78154527672.87392,
          "market_cap_dominance": 4.5848,
          "fully_diluted_market_cap": 80112922388.91,
          "last_updated": "2022-01-30T20:58:00.000Z"
        }
      }
    }
  }
}
