<svg width="60" height="60" viewBox="0 0 60 60" fill="none" xmlns="http://www.w3.org/2000/svg">
<path fill-rule="evenodd" clip-rule="evenodd" d="M30 60C46.5685 60 60 46.5685 60 30C60 13.4315 46.5685 0 30 0C13.4315 0 0 13.4315 0 30C0 46.5685 13.4315 60 30 60ZM47.1638 20.973C48.3058 22.9832 49.0463 25.1453 49.3675 27.3699C49.7155 29.7374 49.5816 32.1675 48.9571 34.5351C48.3147 37.0277 47.1459 39.4131 45.4686 41.5305C43.7288 43.7373 41.4805 45.6045 38.7861 46.9536C38.5362 47.0786 38.2864 47.1948 38.0277 47.3109C37.769 47.4271 37.5103 47.5343 37.2516 47.6414L37.2515 47.6415C36.9927 47.7487 36.7251 47.847 36.4574 47.9453C36.1898 48.0435 35.9221 48.1329 35.6455 48.2133C35.6366 48.2222 35.6366 48.2222 35.6277 48.2222L34.4054 43.6033L32.4425 36.1879L32.2552 36.2415L32.0678 36.2951C32.0054 36.304 31.9429 36.3219 31.8805 36.3398C31.818 36.3487 31.7555 36.3666 31.6931 36.3844L29.9444 36.8222L30.9526 41.2L27.9459 41.9594L27.0983 37.537L21.0135 39.0736L20.5496 34.9014L23.2797 34.2134L21.3882 21.4733L19.131 22.0362L18.8455 19.4274L23.4224 18.2838L22.7801 14.9246C21.415 15.5589 20.1659 16.363 19.0596 17.2921C17.9265 18.2391 16.9272 19.338 16.1064 20.5531C15.2499 21.7949 14.5718 23.1708 14.099 24.636C13.6083 26.1548 13.3495 27.7898 13.3763 29.4873C13.3852 30.3896 13.4834 31.292 13.6618 32.1764C13.8402 33.0877 14.1079 33.9722 14.4648 34.8299C14.8217 35.7054 15.2767 36.5542 15.812 37.3672C16.3652 38.1981 17.0075 38.9843 17.7391 39.708L19.3272 37.3404L19.9429 44.0678L13.7689 45.6313L15.4373 43.1476C14.5451 42.2006 13.7689 41.191 13.1086 40.1189C12.4663 39.0826 11.9488 37.9926 11.5384 36.8758C11.1369 35.7859 10.8514 34.678 10.6729 33.5434C10.4945 32.4445 10.4231 31.3277 10.4499 30.2109C10.4856 29.0674 10.6105 27.9506 10.8425 26.8695C11.0655 25.8153 11.3778 24.7968 11.7703 23.8141C12.154 22.8581 12.609 21.9379 13.1443 21.0534C13.6618 20.1957 14.2596 19.3738 14.9109 18.5965C15.4373 17.9711 15.9994 17.3904 16.5882 16.8454C17.1681 16.3004 17.7748 15.8001 18.4172 15.3445C19.0507 14.8888 19.702 14.4689 20.3711 14.0847C21.0403 13.7095 21.7273 13.37 22.441 13.0662C22.5169 13.035 22.5949 13.0037 22.673 12.9724C22.7511 12.9412 22.8291 12.9099 22.905 12.8786C22.9403 12.8649 22.9753 12.8511 23.01 12.8374C23.1328 12.789 23.2526 12.7417 23.3778 12.6999C23.5295 12.6374 23.6901 12.5838 23.8507 12.5302C23.931 12.5034 24.0113 12.4788 24.0916 12.4543C24.1719 12.4297 24.2522 12.4051 24.3325 12.3783L25.5815 17.7478L26.8931 17.4172C26.9154 17.4127 26.9399 17.406 26.9644 17.3993C26.989 17.3926 27.0135 17.3859 27.0358 17.3815C27.0581 17.377 27.0827 17.3703 27.1072 17.3636C27.1317 17.3569 27.1563 17.3502 27.1786 17.3457C27.2087 17.3407 27.236 17.3328 27.2621 17.3253C27.2823 17.3195 27.3018 17.3139 27.3213 17.31C27.3659 17.2921 27.4105 17.2832 27.4552 17.2742H27.4641L26.8663 15.0318L28.9273 14.5136L29.6232 16.8275L29.6233 16.8275C29.7482 16.8097 29.873 16.7918 29.989 16.7739L29.9891 16.7739C30.1051 16.7561 30.221 16.7382 30.328 16.7293C30.4262 16.7129 30.5244 16.704 30.6158 16.6957C30.624 16.695 30.6322 16.6943 30.6403 16.6935C30.7044 16.6819 30.7685 16.6778 30.8301 16.6739C30.8628 16.6718 30.8948 16.6698 30.9258 16.6667C31.1578 16.6489 31.3808 16.6578 31.6128 16.6757C31.8358 16.7025 32.0678 16.7382 32.2909 16.7918C32.5228 16.8454 32.7459 16.9169 32.9689 17.0062C33.192 17.0956 33.415 17.2028 33.6381 17.3279C33.6559 17.3368 33.6738 17.348 33.6916 17.3591C33.7095 17.3703 33.7273 17.3815 33.7451 17.3904C33.763 17.3993 33.7808 17.4105 33.7987 17.4217C33.8165 17.4328 33.8344 17.444 33.8522 17.4529C33.87 17.4619 33.8857 17.473 33.9013 17.4842C33.9169 17.4954 33.9325 17.5065 33.9503 17.5155C33.9682 17.5289 33.9838 17.54 33.9994 17.5512C34.015 17.5624 34.0307 17.5735 34.0485 17.5869C34.218 17.7031 34.3786 17.8371 34.5303 17.9711C34.6819 18.1141 34.8158 18.257 34.9407 18.4178C35.0656 18.5786 35.1816 18.7484 35.2797 18.9271C35.3779 19.1058 35.4671 19.2934 35.5474 19.4989C35.6991 19.892 35.7883 20.2672 35.8061 20.6335C35.8329 21.0087 35.7794 21.3661 35.6634 21.7145C35.5474 22.063 35.36 22.4025 35.1013 22.7241C34.8425 23.0547 34.5035 23.3674 34.102 23.6622C34.7712 23.7069 35.3779 23.8141 35.931 23.9838C36.4931 24.1536 36.9927 24.3858 37.4388 24.6807C37.8849 24.9844 38.2864 25.3418 38.6255 25.7706C38.9645 26.2084 39.2589 26.7087 39.4909 27.2895C39.6247 27.629 39.7318 27.9595 39.8121 28.2901C39.8924 28.6206 39.9459 28.9512 39.9637 29.2818C39.9816 29.6123 39.9727 29.9429 39.9281 30.2645C39.8835 30.5862 39.8121 30.9078 39.705 31.2294C39.5979 31.5511 39.4641 31.8548 39.3125 32.1407C39.1519 32.4266 38.9734 32.7036 38.7682 32.9627C38.563 33.2217 38.34 33.463 38.0812 33.6863C37.8225 33.9097 37.5459 34.1152 37.2426 34.3028C37.2161 34.3187 37.1893 34.3349 37.1622 34.3514C37.052 34.4181 36.936 34.4884 36.8143 34.5529C36.6626 34.6423 36.502 34.7227 36.3325 34.8031C36.163 34.8835 35.9846 34.9639 35.8061 35.0443C35.6277 35.1158 35.4314 35.1962 35.2351 35.2766L37.3853 42.3346C39.4463 41.2178 41.1771 39.7258 42.5333 38.0015C43.8448 36.3308 44.7816 34.4636 45.3259 32.5159C45.8522 30.6576 46.0128 28.7368 45.8076 26.8606C45.6203 25.0738 45.1028 23.3405 44.2641 21.7145C43.8448 20.8926 43.3541 20.1332 42.8099 19.4274C42.2835 18.7394 41.6946 18.1051 41.0612 17.5244C40.4455 16.9526 39.7764 16.4434 39.0716 15.9788C38.3846 15.5231 37.653 15.13 36.8857 14.7816L35.9756 16.2111L34.5749 12.8786L38.7593 11.8333L38.0366 12.968C38.9466 13.3432 39.8299 13.7899 40.6686 14.2992C41.5251 14.8173 42.337 15.407 43.1043 16.0592C43.8894 16.7293 44.621 17.4708 45.2902 18.2749C45.9861 19.1058 46.6106 20.0081 47.1638 20.973ZM26.1793 20.2672L27.0447 24.0195L28.4901 23.68C28.7399 23.6175 28.963 23.546 29.1771 23.4746C29.3823 23.4031 29.5786 23.3227 29.7481 23.2423C29.9176 23.1529 30.0693 23.0636 30.2031 22.9742C30.337 22.876 30.444 22.7866 30.5422 22.6794C30.6314 22.5722 30.7117 22.465 30.7652 22.3399C30.8277 22.2148 30.8633 22.0808 30.8812 21.9379C30.899 21.7949 30.899 21.6431 30.8812 21.4822C30.8633 21.3214 30.8277 21.1517 30.7741 20.973C30.7206 20.8122 30.6671 20.6692 30.5957 20.5352C30.5332 20.4101 30.4529 20.294 30.3637 20.1957C30.2745 20.0974 30.1764 20.0081 30.0693 19.9456C29.9622 19.883 29.8462 19.8294 29.7213 19.7937C29.5964 19.7579 29.4537 19.7311 29.2931 19.7222C29.1325 19.7133 28.954 19.7133 28.7578 19.7311C28.5615 19.7401 28.3474 19.7669 28.1154 19.8116C27.9199 19.8417 27.7117 19.8908 27.4909 19.943C27.4497 19.9527 27.408 19.9625 27.3659 19.9724L26.1793 20.2672ZM33.8433 30.4611C33.9057 30.2913 33.9414 30.1037 33.9593 29.9072C33.9682 29.7106 33.9593 29.4962 33.9325 29.2818C33.8968 29.0584 33.8433 28.8172 33.763 28.567C33.6738 28.3079 33.5845 28.0667 33.4775 27.8612C33.3793 27.6558 33.2544 27.4771 33.1295 27.3163C33.0046 27.1554 32.8619 27.0214 32.7102 26.9142C32.5585 26.807 32.3979 26.7177 32.2195 26.6551C32.05 26.5926 31.8537 26.5479 31.6396 26.5211C31.4254 26.4943 31.2024 26.4854 30.9526 26.4943C30.7028 26.5032 30.444 26.53 30.1585 26.5747C29.873 26.6194 29.5786 26.6819 29.2574 26.7623L27.7585 27.1376L29.0611 32.7572L30.6849 32.3462C31.0507 32.2569 31.3897 32.1586 31.6931 32.0514C31.9964 31.9442 32.273 31.828 32.5139 31.7119C32.7548 31.5868 32.96 31.4706 33.1385 31.3366C33.3169 31.2026 33.4596 31.0686 33.5756 30.9257C33.6916 30.7916 33.7808 30.6308 33.8433 30.4611Z" fill="white"/>
</svg>
